{ "resource_name": "tracking","resource_version": "3.0","tracking": {"packages":[{"carrier_moniker":"usps","tracking_number":"9274890109641924605335","service_code":"LW","service_description":"Parcel Select Lightweight","estimated_delivery_date":"2018-03-02T15:43:00Z","edd_source":"CARRIER","guaranteed_delivery_date":"2018-03-02T15:43:00Z","is_return":true,"origin":{"city":"xxx","country":"yyy","state":"zz","zipcode":"11111"},"dest":{"city":"xxx","country":"yyy","state":"zz","zipcode":"11111"},"events":[{"date":"2018-03-01T00:00:00Z","date_with_derived_offset":"2018-03-01T00:00:00-07:00","status_code_mapping":{"code":"200","code_description":"Just Shipped (Manifest Created): General"},"location":{"city":"","country":"","state":"","zipcode":""},"carrier_moniker":"usps"},{"date":"2018-03-02T08:14:00Z","date_with_derived_offset":"2018-03-02T08:14:00-07:00","status_code_mapping":{"code":"400","code_description":"Out For Delivery: General"},"location":{"city":"UPLAND","country":"","state":"CA","zipcode":"91784"},"carrier_moniker":"usps"},{"date":"2018-03-0%%15:43:00Z","date_with_derived_offset":"2018-03-02T15:43:00-07:00","status_code_mapping":{"code":"500","code_description":"Delivered: General"},"location":{"city":"UPLAND","country":"","state":"CA","zipcode":"91784"},"carrier_moniker":"usps"}]}],"order_number":"XXXXXYYYYYY"}}
{ "resource_name": "tracking", "resource_version": "3.0", "tracking": { "packages": [ { "carrier_moniker": "usps-send-order-just-shipped-expect-error", "tracking_number": "9274890109641924605335", "service_code": "LW", "service_description": "Parcel Select Lightweight", "estimated_delivery_date": "2018-03-02T15:43:00Z", "edd_source": "CARRIER", "guaranteed_delivery_date": "2018-03-02T15:43:00Z", "is_return": true, "origin": { "city": "xxx", "country": "yyy", "state": "zz", "zipcode": "11111" }, "dest": { "city": "xxx", "country": "yyy", "state": "zz", "zipcode": "11111" }, "events": [ { "date": "2018-03-01T00:00:00Z", "date_with_derived_offset": "2018-03-01T00:00:00-07:00", "status_code_mapping": { "code": "200", "code_description": "Just Shipped (Manifest Created): General " }, "location": { "city": "", "country": "", "state": "", "zipcode": "" }, "carrier_moniker": "usps" } ] } ], "order_number": "XXXXXYYYYYY" }, "meta_info": { "published_at": "2018-03-01T01:00:00Z", "tracer_id": "c1a5b07d431c4ab499d3c8714529a24a" } }
{ "resource_name": "tracking", "resource_version": "3.0", "tracking": { "packages": [ { "carrier_moniker": "usps", "tracking_number": "9274890109641924605335", "service_code": "LW", "service_description": "Parcel Select Lightweight", "estimated_delivery_date": "2018-03-02T15:43:00Z", "edd_source": "CARRIER", "guaranteed_delivery_date": "2018-03-02T15:43:00Z", "is_return": true, "origin": { "city": "xxx", "country": "yyy", "state": "zz", "zipcode": "11111" }, "dest": { "city": "xxx", "country": "yyy", "state": "zz", "zipcode": "11111" }, "events": [ { "date": "2018-03-01T00:00:00Z", "date_with_derived_offset": "2018-03-01T00:00:00-07:00", "status_code_mapping": { "code": "200", "code_description": "Just Shipped (Manifest Created): General" }, "location": { "city": "", "country": "", "state": "", "zipcode": "" }, "carrier_moniker": "usps" }, { "date": "2018-03-02T08:14:00Z", "date_with_derived_offset": "2018-03-02T08:14:00-07:00", "status_code_mapping": { "code": "400", "code_description": "Out For Delivery: General" }, "location": { "city": "THE WOODLANDS", "country": "", "state": "TX", "zipcode": "77382" }, "carrier_moniker": "TIMETRAVEL" } ] } ], "order_number": "XXXXXYYYYYY" }, "meta_info": { "published_at": "2018-03-02T08:15:00Z", "tracer_id": "c1a5b07d431c4ab499d3c8714529a24a" } }
{ "resource_name":"tracking", "resource_version":"3.0", "tracking":{ "packages":[ { "carrier_moniker":"usps", "tracking_number":"9274890109641924605335", "service_code":"LW", "service_description":"Parcel Select Lightweight", "estimated_delivery_date":"2018-03-02T15:43:00Z", "edd_source":"CARRIER", "guaranteed_delivery_date": "2018-03-02T15:43:00Z", "origin":{ "city":"xxx", "country":"yyy", "state":"zz", "zipcode":"11111" }, "dest":{ "city":"xxx", "country":"yyy", "state":"zz", "zipcode":"11111" }, "events":[ { "date":"2018-03-01T00:00:00Z", "date_with_derived_offset":"2018-03-01T00:00:00-07:00", "status_code_mapping":{ "code":"200", "code_description":"Just Shipped (Manifest Created): General" }, "location":{ "city":"", "country":"", "state":"", "zipcode":"" }, "carrier_moniker":"usps" }, { "date":"2018-03-02T08:14:00Z", "date_with_derived_offset":"2018-03-02T08:14:00-07:00", "status_code_mapping":{ "code":"500", "code_description":"Out For Delivery: General" }, "location":{ "city":"UPLAND", "country":"", "state":"CA", "zipcode":"91784" }, "carrier_moniker":"usps" } ], "is_return":true }, { "carrier_moniker":"usps", "tracking_number":"yyyyyyyyyyyyyyyyyyy", "service_code":"LW", "service_description":"Parcel Select Lightweight", "estimated_delivery_date":"2018-03-02T15:43:00Z", "edd_source":"CARRIER", "is_return":true, "origin":{ "city":"xxx", "country":"yyy", "state":"zz", "zipcode":"11111" }, "dest":{ "city":"xxx", "country":"yyy", "state":"zz", "zipcode":"11111" }, "events":[ { "date":"2018-03-01T00:00:00Z", "date_with_derived_offset":"2018-03-01T00:00:00-07:00", "status_code_mapping":{ "code":"200", "code_description":"Just Shipped (Manifest Created): General" }, "location":{ "city":"", "country":"", "state":"", "zipcode":"" }, "carrier_moniker":"usps" }, { "date":"2018-02-02T08:14:00Z", "date_with_derived_offset":"2018-03-02T08:14:00-07:00", "status_code_mapping":{ "code":"500", "code_description":"Out For Delivery: General" }, "location":{ "city":"UPLAND", "country":"", "state":"CA", "zipcode":"91784" }, "carrier_moniker":"usps" } ] } ], "order_number":"XXXXXYYYYYY", "is_return":true }, "meta_info":{ "published_at":"2018-03-02T08:15:00Z", "tracer_id":"c1a5b07d431c4ab499d3c8714529a24a" } }
{ "resource_name": "trackingx", "resource_version": "3.2", "tracking": { "packages": [ { "carrier_moniker": "usps", "tracking_number": "9274890109641924605335", "service_code": "LW", "service_description": "Parcel Select Lightweight", "estimated_delivery_date": "2018-03-02T15:43:00Z", "edd_source": "CARRIER", "guaranteed_delivery_date": "2018-03-02T15:43:00Z", "is_return": true, "origin": { "city": "xxx", "country": "yyy", "state": "zz", "zipcode": "11111" }, "dest": { "city": "xxx", "country": "yyy", "state": "zz", "zipcode": "11111" }, "events": [ { "date": "2018-03-01T08:14:00Z", "local_date_time": "2018-03-01T08:14:00", "status_code_mapping": { "code": "200", "code_description": "Just Shipped (Manifest Created): General" }, "location": { "city": "", "country": "", "state": "", "zipcode": "", "time_zone_id": null }, "carrier_moniker": "usps" }, { "date": "2018-03-02T08:14:00Z", "date_with_derived_offset": "2018-03-02T08:14:00-07:00", "local_date_time": "2018-03-02T08:14:00", "status_code_mapping": { "code": "400", "code_description": "Out For Delivery: General" }, "location": { "city": "UPLAND", "country": "", "state": "CA", "zipcode": "91784", "time_zone_id": "America/Los_Angeles" }, "carrier_moniker": "usps" }, { "date": "2018-03-02T15:43:00Z", "date_with_derived_offset": "2018-03-02T15:43:00-07:00", "status_code_mapping": { "code": "500", "code_description": "Delivered: General" }, "location": { "city": "UPLAND", "country": "", "state": "CA", "zipcode": "91784", "time_zone_id": "America/Los_Angeles" }, "carrier_moniker": "usps" } ] } ], "order_number": "XXXXXYYYYYY" }, "meta_info": { "published_at": "2019-01-04T16:59:00Z", "update_at": "2019-01-04T16:58:19.411Z", "tracer_id": "c1a5b07d431c4ab499d3c8714529a24a" } }
{ "resource_version": "3.2", "meta_info": { "published_at": "2019-01-04T16:59:00Z", "update_at": "2019-01-04T16:58:19.411Z" } }